{
    "items": [
        {
            "id": 336118449,
            "title": "Home",
            "url": "https://www.tudelft.nl",
            "average_page_views_per_visit": 1.38,
            "bounce_rate": 40.28,
            "has_integration": false,
            "page_views": 27238,
            "visits": 19716
        },
        {
            "id": 665073598,
            "title": "Informatie rondom het coronavirus",
            "url": "https://www.tudelft.nl/2020/tu-delft/coronavirus/",
            "average_page_views_per_visit": 1.46,
            "bounce_rate": 59.1,
            "has_integration": false,
            "page_views": 24698,
            "visits": 16891
        },
        {
            "id": 665073605,
            "title": "Information regarding the coronavirus",
            "url": "https://www.tudelft.nl/en/2020/tu-delft/coronavirus/",
            "average_page_views_per_visit": 1.48,
            "bounce_rate": 62.69,
            "has_integration": false,
            "page_views": 19542,
            "visits": 13202
        },
        {
            "id": 337155966,
            "title": "Delft University of Technology",
            "url": "https://www.tudelft.nl/en/",
            "average_page_views_per_visit": 1.41,
            "bounce_rate": 18.85,
            "has_integration": false,
            "page_views": 9278,
            "visits": 6563
        },
        {
            "id": 363442585,
            "title": "Masters",
            "url": "https://www.tudelft.nl/en/education/programmes/masters/",
            "average_page_views_per_visit": 2.33,
            "bounce_rate": 14.34,
            "has_integration": false,
            "page_views": 5420,
            "visits": 2324
        },
        {
            "id": 666724400,
            "title": "Masterstudenten TU Delft starten initiatief om beademingsapparatuur te ontwikkelen",
            "url": "https://www.tudelft.nl/2020/tu-delft/masterstudenten-tu-delft-starten-initiatief-om-beademingsapparatuur-te-ontwikkelen/",
            "average_page_views_per_visit": 1.21,
            "bounce_rate": 70.56,
            "has_integration": false,
            "page_views": 3771,
            "visits": 3127
        },
        {
            "id": 666721880,
            "title": "OperationAIR",
            "url": "https://www.tudelft.nl/onderwijs/opleidingen/masters/technical-medicine/msc-technical-medicine/operationair/",
            "average_page_views_per_visit": 1.22,
            "bounce_rate": 81.24,
            "has_integration": false,
            "page_views": 3455,
            "visits": 2828
        },
        {
            "id": 363442495,
            "title": "Programmes",
            "url": "https://www.tudelft.nl/en/education/programmes/",
            "average_page_views_per_visit": 1.4,
            "bounce_rate": 9.09,
            "has_integration": false,
            "page_views": 2680,
            "visits": 1912
        },
        {
            "id": 402712745,
            "title": "MSc - International diploma",
            "url": "https://www.tudelft.nl/en/education/admission-and-application/msc-international-diploma/",
            "average_page_views_per_visit": 1.64,
            "bounce_rate": 8.47,
            "has_integration": false,
            "page_views": 2293,
            "visits": 1397
        },
        {
            "id": 363467772,
            "title": "Search Jobs",
            "url": "https://www.tudelft.nl/en/about-tu-delft/working-at-tu-delft/search-jobs/",
            "average_page_views_per_visit": 1.24,
            "bounce_rate": 78.05,
            "has_integration": false,
            "page_views": 2159,
            "visits": 1745
        }
    ],
    "total_items": 24469,
    "total_pages": 2447,
    "links": {
        "next": {
            "href": "https://api.siteimprove.com/v2/sites/1348629560/analytics/content/all_pages?page=2"
        },
        "self": {
            "href": "https://api.siteimprove.com/v2/sites/1348629560/analytics/content/all_pages"
        }
    }
}